{
  "photo": {
    "person": [
      {
        "nsid": "111148433@N08",
        "username": "bf",
        "realname": "B F",
        "favedate": "1475670319",
        "iconserver": "752",
        "iconfarm": 1,
        "contact": 0,
        "friend": 0,
        "family": 0
      },
      {
        "nsid": "111137635@N03",
        "username": "m",
        "realname": "T\u00f3th",
        "favedate": "1474847790",
        "iconserver": "5728",
        "iconfarm": 6,
        "contact": 0,
        "friend": 0,
        "family": 0
      },
      {
        "nsid": "66661213@N00",
        "username": "d",
        "realname": "D F",
        "favedate": "1474773408",
        "iconserver": "1634",
        "iconfarm": 2,
        "contact": 0,
        "friend": 0,
        "family": 0
      }
    ],
    "id": "29835255596",
    "secret": "abc",
    "server": "8568",
    "farm": 9,
    "page": 1,
    "pages": 10,
    "perpage": 10,
    "total": "97"
  },
  "stat": "ok"
}